{
    "Nuke": {
        "type": "SPELL",
        "Palom": {
            "J": 52,
            "J2": 52
        },
        "Rydia": {
            "J": 52,
            "J2": 55
        },
        "Black": true
    },
    "White": {
        "type": "SPELL",
        "Rosa": {
            "J": 48,
            "J2": 55
        },
        "Porom": {
            "J": 52,
            "J2": 52
        },
        "White": true
    },
    "Cure4": {
        "type": "SPELL",
        "Rosa": {            
            "J": 44,
            "J2": 44
        },
        "Porom": {
            "J": 50,
            "J2": 50
        },
        "White": true
    },
    "Life2": {
        "type": "SPELL",
        "Rosa": {
            "J": 40,
            "J2": 40
        },
        "Porom": {
            "J": 56,
            "J2": 56
        },
        "White": true
    }
}